// Jest Snapshot v1, https://goo.gl/fbAQLP

exports[`should have proper classes 1`] = `
ShallowWrapper {
  "length": 1,
  Symbol(enzyme.__root__): [Circular],
  Symbol(enzyme.__unrendered__): <HomeScreen />,
  Symbol(enzyme.__renderer__): Object {
    "batchedUpdates": [Function],
    "getNode": [Function],
    "render": [Function],
    "simulateEvent": [Function],
    "unmount": [Function],
  },
  Symbol(enzyme.__node__): Object {
    "instance": null,
    "key": undefined,
    "nodeType": "host",
    "props": Object {
      "children": Array [
        <div
          className="welcome"
>
          <Header
                    text="Welcome to the Trivia Challange!"
          />
</div>,
        <div
          className="goal"
>
          You will be presented with 10 True or False questions.
</div>,
        <div
          className="question"
>
          Can you score 100%?
</div>,
        <Link
          className="begin"
          replace={false}
          to="/quiz"
>
          BEGIN
</Link>,
      ],
      "className": "home",
    },
    "ref": null,
    "rendered": Array [
      Object {
        "instance": null,
        "key": undefined,
        "nodeType": "host",
        "props": Object {
          "children": <Header
            text="Welcome to the Trivia Challange!"
/>,
          "className": "welcome",
        },
        "ref": null,
        "rendered": Object {
          "instance": null,
          "key": undefined,
          "nodeType": "class",
          "props": Object {
            "text": "Welcome to the Trivia Challange!",
          },
          "ref": null,
          "rendered": null,
          "type": [Function],
        },
        "type": "div",
      },
      Object {
        "instance": null,
        "key": undefined,
        "nodeType": "host",
        "props": Object {
          "children": "You will be presented with 10 True or False questions.",
          "className": "goal",
        },
        "ref": null,
        "rendered": "You will be presented with 10 True or False questions.",
        "type": "div",
      },
      Object {
        "instance": null,
        "key": undefined,
        "nodeType": "host",
        "props": Object {
          "children": "Can you score 100%?",
          "className": "question",
        },
        "ref": null,
        "rendered": "Can you score 100%?",
        "type": "div",
      },
      Object {
        "instance": null,
        "key": undefined,
        "nodeType": "class",
        "props": Object {
          "children": "BEGIN",
          "className": "begin",
          "replace": false,
          "to": "/quiz",
        },
        "ref": null,
        "rendered": "BEGIN",
        "type": [Function],
      },
    ],
    "type": "div",
  },
  Symbol(enzyme.__nodes__): Array [
    Object {
      "instance": null,
      "key": undefined,
      "nodeType": "host",
      "props": Object {
        "children": Array [
          <div
            className="welcome"
>
            <Header
                        text="Welcome to the Trivia Challange!"
            />
</div>,
          <div
            className="goal"
>
            You will be presented with 10 True or False questions.
</div>,
          <div
            className="question"
>
            Can you score 100%?
</div>,
          <Link
            className="begin"
            replace={false}
            to="/quiz"
>
            BEGIN
</Link>,
        ],
        "className": "home",
      },
      "ref": null,
      "rendered": Array [
        Object {
          "instance": null,
          "key": undefined,
          "nodeType": "host",
          "props": Object {
            "children": <Header
              text="Welcome to the Trivia Challange!"
/>,
            "className": "welcome",
          },
          "ref": null,
          "rendered": Object {
            "instance": null,
            "key": undefined,
            "nodeType": "class",
            "props": Object {
              "text": "Welcome to the Trivia Challange!",
            },
            "ref": null,
            "rendered": null,
            "type": [Function],
          },
          "type": "div",
        },
        Object {
          "instance": null,
          "key": undefined,
          "nodeType": "host",
          "props": Object {
            "children": "You will be presented with 10 True or False questions.",
            "className": "goal",
          },
          "ref": null,
          "rendered": "You will be presented with 10 True or False questions.",
          "type": "div",
        },
        Object {
          "instance": null,
          "key": undefined,
          "nodeType": "host",
          "props": Object {
            "children": "Can you score 100%?",
            "className": "question",
          },
          "ref": null,
          "rendered": "Can you score 100%?",
          "type": "div",
        },
        Object {
          "instance": null,
          "key": undefined,
          "nodeType": "class",
          "props": Object {
            "children": "BEGIN",
            "className": "begin",
            "replace": false,
            "to": "/quiz",
          },
          "ref": null,
          "rendered": "BEGIN",
          "type": [Function],
        },
      ],
      "type": "div",
    },
  ],
  Symbol(enzyme.__options__): Object {
    "adapter": ReactSixteenAdapter {
      "options": Object {
        "enableComponentDidUpdateOnSetState": true,
      },
    },
  },
}
`;
